…
## What is the average daily activity pattern?


```r
stepsxinterval <- data [!is.na(data$steps),] %>% group_by( by = interval) %>%  summarize (mean(steps, na.rm=TRUE))
colnames(stepsxinterval)  <-  c("Interval", "Steps")
stepsxinterval 
```

```
## # A tibble: 288 x 2
##    Interval  Steps
##       <int>  <dbl>
##  1        0 1.72  
##  2        5 0.340 
##  3       10 0.132 
##  4       15 0.151 
##  5       20 0.0755
##  6       25 2.09  
##  7       30 0.528 
##  8       35 0.868 
##  9       40 0     
## 10       45 1.47  
## # ... with 278 more rows
```
…
